{
    "external_push_client_only": false,
    "using_ios": true,
    "using_android": true,
    "firestore": true,
    "realtimedb": true,
    "authentication": true,
    "remote_config": false,
    "performance_monitoring": false,
    "messaging": false,
    "in_app_messaging": false,
    "crashlytics": false,
    "crash_reporting": false,
    "storage": false,
    "functions": false,
    "facebook_auth": false,
    "google_auth": true,
    "admob": false,
    "invites": true,
    "dynamic_links": true,
    "ml_kit": false
}